…
```{R}
for(i in seq_along(titulos)) {
  limpio <- tibble(capitulo = seq_along(libros[[i]]),
                   texto = libros[[i]]) %>%
    unnest_tokens(palabra, texto) %>%
    mutate(libro = titulos[i]) %>%
    select(libro, everything())
  serie <- rbind(serie, limpio)
}
```

Aunque ya es un viejo conocido, te explico qué hace en cada línea de cada iteración. El controlador de vueltas es la longitud de `titulos`. Podrías usar `length(titulos)`, pero también `seq_along()`, es decir, sigue dando vueltas mientras que haya elementos en `titulos`. En la primera línea, guardará en `limpio` el número de los capítulos –`capitulo`– y el `texto` de cada `capitulo` que haya en `libros[[i]]`[^2], donde es `i` es uno de los diez posibles, de manera que, por ejemplo, `libros[[1]]` es `Trafalgar`, el cual tiene 17 capítulos. El contenido de `limpio` en esta primera línea del bucle es (no lo podrás ver en la consola):

```
# A tibble: 17 x 2
capitulo texto
  <int> <chr>
 1    1 "Se me permitirá que antes de referir el gran suceso…
 2    2 "En uno de los primeros días de Octubre de aquel año…
 3    3 "D. Alonso Gutiérrez de Cisniega pertenecía a una an…
 4    4 "«Señor Marcial –dijo ésta con redoblado furor: –si …
 5    5 "Para oponerse a la insensata determinación de su ma…
 6    6 "Recuerdo muy bien que al día siguiente de los pesco…
 7    7 "A la mañana siguiente se me preparaba una gran sorp…
 8    8 "No puedo describir el entusiasmo que despertó en mi…
 9    9 "Octubre era el mes, y 18 el día. De esta fecha no m…
10   10 "Al amanecer del día 20, el viento soplaba con mucha…
# ... with 7 more rows
```

En la siguiente línea lo que hace es dividir el texto del libro en palabras-token. Con lo que el contenido de `limpio` ahora en una tabla con el número de capítulo y cada una de las palabras del `libro[[i]]`.

```
# A tibble: 51,303 x 2
capitulo palabra
  <int> <chr>
 1 1   se
 2 1   me
 3 1   permitirá
 4 1   que
 5 1   antes
 6 1   de
 7 1   referir
 8 1   el
 9 1   gran
10 1   suceso
# ... with 51,293 more rows
```

En la siguiente la función `mutate()` crea una nueva columna llamada `libro`, que contendrá el título del episodio y lo extraerá del vector `titulos`.

```
# A tibble: 51,303 x 3
capitulo palabra libro
 <int>  <chr>    <chr>
 1   1  se        Trafalgar
 2   1  me        Trafalgar
 3   1  permitirá Trafalgar
 4   1  que       Trafalgar
 5   1  antes     Trafalgar
 6   1  de        Trafalgar
 7   1  referir   Trafalgar
 8   1  el        Trafalgar
 9   1  gran      Trafalgar
10   1  suceso    Trafalgar
# ... with 51,293 more rows
```

Después la función `select()` se encarga de crear la tabla intermedia definitiva, la cual solo tendrá las tres columnas del paso anterior, pero reorganizadas: `libro`, que guarda el título, `capitulo`, que contiene el número de cada capítulo, y `palabra`, cada uno de las palabra-token que constituyen cada capítulo.

```
# A tibble: 51,303 x 3
libro capitulo palabra
  <fct>    <int> <chr>
 1 Trafalgar 1   se
 2 Trafalgar 1   me
 3 Trafalgar 1   permitirá
 4 Trafalgar 1   que
 5 Trafalgar 1   antes
 6 Trafalgar 1   de
 7 Trafalgar 1   referir
 8 Trafalgar 1   el
 9 Trafalgar 1   gran
10 Trafalgar 1   suceso
# ... with 51,293 more rows
```

Como en este caso tienes diez entregas, la última línea del bucle se encarga de añadir a la tabla `serie`, que creaste antes de comenzarlo, cada una de las diez tablas intermedias que se han ido generando secuencialmente en `limpio`. Al final, tienes las diez novelas, divididas en palabras-token con indicación del `titulo` y del `capitulo` en el que aparecen. Es más, podrías leer las diez novelas leyendo la columna `palabra`, pues aún mantiene el orden del texto original, solo ha perdido los signos de puntuación y las mayúsculas. Es una tabla bastante grande, tiene 685 889 filas (palabras-token). Si te has leído los diez primeros Episodios ya sabes cuántas palabras tienen en total.

```
# A tibble: # A tibble: 685,889 x 3
libro capitulo palabra
  <fct>      <int> <chr>
 1 Trafalgar 1     se
 2 Trafalgar 1     me
 3 Trafalgar 1     permitirá
 4 Trafalgar 1     que
 5 Trafalgar 1     antes
 6 Trafalgar 1     de
 7 Trafalgar 1     referir
 8 Trafalgar 1     el
 9 Trafalgar 1     gran
10 Trafalgar 1     suceso
# ... with 685,879 more rows
```
…
En el eje vertical tienes la valencia emocional de los diez primeros episodios. Como es de suponer, los valores positivos corresponden a sentimientos positivos y los negativos a los negativos, es una obviedad. El valor del eje horizontal indica el número de la página, establecida en secuencias consecutivas de 500 palabras, por lo que puedes ver cómo varía la carga emocional según progresa el texto.

### Explicación del código

Ahora vamos a ver qué es lo que sucede en cada paso hasta llegar al gráfico anterior. Lo primero es agrupar los datos, que están recogidos en `serie`, de cada uno de los Episodios, porque quieres establecer la carga o valencia emotiva de cada uno de los libros, no de la serie como un todo, por lo tanto, has de usar `group_by(libro)`. Este primer paso crea una tabla intermedia invisible, como la que hay a continuación, en la que se informa de que la agrupación de la variable libro es de 10:

```
# A tibble: 685,889 x 3
# Groups: libro [10]
libro capitulo palabra
  <fct>  <int> <chr>
 1 Trafalgar 1 se
 2 Trafalgar 1 me
 3 Trafalgar 1 permitirá
 4 Trafalgar 1 que
 5 Trafalgar 1 antes
 6 Trafalgar 1 de
 7 Trafalgar 1 referir
 8 Trafalgar 1 el
 9 Trafalgar 1 gran
10 Trafalgar 1 suceso
# … with 685,879 more rows
```
…
```{R eval = FALSE}
89629 %/% 500 + 1
ceiling(89629/500)
```

Cualquiera de las dos ofrecerá el resultado

```{R echo = FALSE}
ceiling(89629/500)
```

El resultado intermedio de la función `mutate()`, no lo verás en la consola, es:

```
# A tibble: 685,889 x 5
# Groups: libro [10]
libro capitulo palabra recuento_palabras indice
  <fct>      <int> <chr>   <int> <dbl>
 1 Trafalgar 1     se        1   1
 2 Trafalgar 1     me        2   1
 3 Trafalgar 1     permitirá 3   1
 4 Trafalgar 1     que       4   1 
 5 Trafalgar 1     antes     5   1
 6 Trafalgar 1     de        6   1
 7 Trafalgar 1     referir   7   1
 8 Trafalgar 1     el        8   1
 9 Trafalgar 1     gran      9   1
10 Trafalgar 1     suceso   10   1
# … with 685,879 more rows
```
…
```
La Batalla de los Arapiles 39 sin   89624 180
La Batalla de los Arapiles 39 nada  89625 180
La Batalla de los Arapiles 39 y     89626 180
La Batalla de los Arapiles 39 lo    89627 180
La Batalla de los Arapiles 39 tuvo  89628 180
La Batalla de los Arapiles 39 todo  89629 180
```

En los dos recuadros anteriores tienes, por un lado, las diez primeras palabras de _Trafalgar_, que se encuentran en el primer capítulo y forman el primer grupo de 500 palabras de esa entrega (podríamos decir que en la primera página). En el segundo recuadro tienes que seis últimas palabras de _La batalla de Arapiles_, que son las palabras 685884 a 685889, que se encuentran en el capítulo 39 y forman el grupo (es decir, la página) 180 de esa novela.

En la siguiente línea lee el diccionario de sentimientos `nrc` y añade la columna `sentimiento` con los distintos valores que puede tener. De nuevo es un estadio interno que no es visible, pero te muestro el aspecto que tiene:

```
# A tibble: 170,065 x 6
# Groups: libro [10]
libro capitulo palabra recuento_palabras indice sentimiento
  <fct>  <int> <chr>  <int> <dbl> <chr>
 1 Trafalgar 1 testigo  14   1   confianza
 2 Trafalgar 1 palabras 17   1   ira
 3 Trafalgar 1 palabras 17   1   negativo
 4 Trafalgar 1 infancia 20   1   alegría
 5 Trafalgar 1 infancia 20   1   positivo
 6 Trafalgar 1 terrible 36   1   disgusto
 7 Trafalgar 1 terrible 36   1   ira
 8 Trafalgar 1 terrible 36   1   miedo
 9 Trafalgar 1 terrible 36   1   negativo
10 Trafalgar 1 terrible 36   1   premonición
# … with 170,055 more rows
```

Todas las palabras son del capítulo primero, de la primera página y tan solo las palabras 14, 17, 20 y 36 ha obtenido una valencia (valor de la columna sentimiento). El siguiente paso es contar cuántas palabras de cada emoción hay en cada página (el número de `indice`). La tabla interna es:

```
# A tibble: 13,738 x 4
# Groups: libro [10]
libro indice sentimiento n
  <fct>                      <dbl> <chr>     <int>
 1 La Batalla de los Arapiles 1    alegría     11
 2 La Batalla de los Arapiles 1    asombro      9
 3 La Batalla de los Arapiles 1    confianza   13
 4 La Batalla de los Arapiles 1    disgusto    11
 5 La Batalla de los Arapiles 1    ira          7
 6 La Batalla de los Arapiles 1    miedo       16
 7 La Batalla de los Arapiles 1    negativo    17
 8 La Batalla de los Arapiles 1    positivo    24
 9 La Batalla de los Arapiles 1    premonición 12
10 La Batalla de los Arapiles 1    tristeza    15
# … with 13,728 more rows
```
…
Al final tendrás en `texto_analizar` una tabla que puedes ver con
```{R}
texto_analizar
```

### Explicación del código
En cada uno de los pasos habrías obtenido lo siguiente, pero no lo puedes ver, salvo que fueras ejecutando línea a línea.

Con la línea `unnest_tokens(palabra, texto)` divides el texto en palabras-token y se mantienen en el mismo orden que en el texto. Recuerda que las mayúsculas se pasan a minúsculas y los signos de puntuación se eliminan.

```
# A tibble: 131,337 x 1
palabra
<chr>
1 vicente
2 blasco
3 ibáñez
4 los
5 cuatro
6 jinetes
7 del
8 apocalipsis
9 1916
10 primera
# ... with 131,327 more rows
```
Con `mutate(pagina = (1:n()) %/% 400 + 1)` se crea la numeración de `pagina`. Esta vez consideramos que son tan solo 400 palabras por página. Tú puedes decidir la longitud que mejor te convenga.

```
# A tibble: 131,337 x 2
palabra      pagina
<chr>        <dbl>
1 vicente      1
2 blasco       1
3 ibáñez       1
4 los          1
5 cuatro       1
6 jinetes      1
7 del          1
8 apocalipsis  1
9 1916         1
10 primera     1
# ... with 131,327 more rows
```

Con `inner_join(get_sentiments("nrc"))` se agrega la columna con el sentimiento que tiene cada cada palabra (si es que está en el diccionario)

```
# A tibble: 37,021 x 3
  palabra pagina sentimiento
  <chr>    <dbl>  <chr>
1 jardín      1   alegría
2 jardín      1   positivo
3 tarde       1   negativo
4 tarde       1   tristeza
5 pequeño     1   negativo
6 jardín      1   alegría
7 jardín      1   positivo
8 impaciencia 1   negativo
9 cita        1   asombro
10 cita       1   negativo
# ... with 37,011 more rows
```
Con `count(sentimiento, pagina = pagina)` calculas –`n`– de cuántas palabras de cada sentimiento o emoción –`sentimiento`– hay en cada página –`pagina`–.

```
# A tibble: 3,283 x 3
  sentimiento pagina  n
  <chr>       <dbl>   <int>
1 alegría      1       11
2 alegría      2        7
3 alegría      3        6
4 alegría      4       11
5 alegría      5        8
6 alegría      6        7
7 alegría      7        6
8 alegría      8       11
9 alegría      9       13
10 alegría    10        8
# ... with 3,273 more rows
```
…
